strict graph G{
0 [label="SEQ"];
0 -- 1;
1 [label="LABEL\nL_QS::Start"];
0 -- 2;
2 [label="SEQ"];
2 -- 3;
3 [label="SEQ"];
3 -- 4;
4 [label="MOVE"];
4 -- 5;
5 [label="MEM"];
5 -- 6;
6 [label="+"];
6 -- 7;
7 [label="TEMP\nT_FP"];
6 -- 8;
8 [label="CONST\n12"];
4 -- 9;
9 [label="CALL"];
9 -- 10;
10 [label="NAME\nL_QS::Init"];
9 -- 11;
11 [label="TEMP\nT_THIS"];
9 -- 12;
12 [label="MEM"];
12 -- 13;
13 [label="+"];
13 -- 14;
14 [label="TEMP\nT_FP"];
13 -- 15;
15 [label="CONST\n8"];
3 -- 16;
16 [label="SEQ"];
16 -- 17;
17 [label="MOVE"];
17 -- 18;
18 [label="MEM"];
18 -- 19;
19 [label="+"];
19 -- 20;
20 [label="TEMP\nT_FP"];
19 -- 21;
21 [label="CONST\n12"];
17 -- 22;
22 [label="CALL"];
22 -- 23;
23 [label="NAME\nL_QS::Print"];
22 -- 24;
24 [label="TEMP\nT_THIS"];
16 -- 25;
25 [label="SEQ"];
25 -- 26;
26 [label="EXP"];
26 -- 27;
27 [label="CALL"];
27 -- 28;
28 [label="NAME\nL_print"];
27 -- 29;
29 [label="CONST\n9999"];
25 -- 30;
30 [label="SEQ"];
30 -- 31;
31 [label="MOVE"];
31 -- 32;
32 [label="MEM"];
32 -- 33;
33 [label="+"];
33 -- 34;
34 [label="TEMP\nT_FP"];
33 -- 35;
35 [label="CONST\n12"];
31 -- 36;
36 [label="-"];
36 -- 37;
37 [label="MEM"];
37 -- 38;
38 [label="+"];
38 -- 39;
39 [label="TEMP\nT_THIS"];
38 -- 40;
40 [label="CONST\n4"];
36 -- 41;
41 [label="CONST\n1"];
30 -- 42;
42 [label="SEQ"];
42 -- 43;
43 [label="MOVE"];
43 -- 44;
44 [label="MEM"];
44 -- 45;
45 [label="+"];
45 -- 46;
46 [label="TEMP\nT_FP"];
45 -- 47;
47 [label="CONST\n12"];
43 -- 48;
48 [label="CALL"];
48 -- 49;
49 [label="NAME\nL_QS::Sort"];
48 -- 50;
50 [label="TEMP\nT_THIS"];
48 -- 51;
51 [label="CONST\n0"];
48 -- 52;
52 [label="MEM"];
52 -- 53;
53 [label="+"];
53 -- 54;
54 [label="TEMP\nT_FP"];
53 -- 55;
55 [label="CONST\n12"];
42 -- 56;
56 [label="MOVE"];
56 -- 57;
57 [label="MEM"];
57 -- 58;
58 [label="+"];
58 -- 59;
59 [label="TEMP\nT_FP"];
58 -- 60;
60 [label="CONST\n12"];
56 -- 61;
61 [label="CALL"];
61 -- 62;
62 [label="NAME\nL_QS::Print"];
61 -- 63;
63 [label="TEMP\nT_THIS"];
2 -- 64;
64 [label="MOVE"];
64 -- 65;
65 [label="CONST\n0"];
64 -- 66;
66 [label="TEMP\nT_RET"];
}