strict graph G{
0 [label="SEQ"];
0 -- 1;
1 [label="LABEL\nL_QS::Sort"];
0 -- 2;
2 [label="SEQ"];
2 -- 3;
3 [label="SEQ"];
3 -- 4;
4 [label="MOVE"];
4 -- 5;
5 [label="MEM"];
5 -- 6;
6 [label="+"];
6 -- 7;
7 [label="TEMP\nT_FP"];
6 -- 8;
8 [label="CONST\n32"];
4 -- 9;
9 [label="CONST\n0"];
3 -- 10;
10 [label="SEQ"];
10 -- 11;
11 [label="CJUMP\nLT"];
11 -- 12;
12 [label="MEM"];
12 -- 13;
13 [label="+"];
13 -- 14;
14 [label="TEMP\nT_FP"];
13 -- 15;
15 [label="CONST\n8"];
11 -- 16;
16 [label="MEM"];
16 -- 17;
17 [label="+"];
17 -- 18;
18 [label="TEMP\nT_FP"];
17 -- 19;
19 [label="CONST\n12"];
11 -- 20;
20 [label="iftrue\nL_IFTRUE_4"];
11 -- 21;
21 [label="iffalse\nL_IFFALSE_4"];
10 -- 22;
22 [label="SEQ"];
22 -- 23;
23 [label="LABEL\nL_IFTRUE_4"];
22 -- 24;
24 [label="SEQ"];
24 -- 25;
25 [label="SEQ"];
25 -- 26;
26 [label="MOVE"];
26 -- 27;
27 [label="MEM"];
27 -- 28;
28 [label="+"];
28 -- 29;
29 [label="TEMP\nT_FP"];
28 -- 30;
30 [label="CONST\n16"];
26 -- 31;
31 [label="MEM"];
31 -- 32;
32 [label="+"];
32 -- 33;
33 [label="MEM"];
33 -- 34;
34 [label="TEMP\nT_THIS"];
32 -- 35;
35 [label="*"];
35 -- 36;
36 [label="+"];
36 -- 37;
37 [label="MEM"];
37 -- 38;
38 [label="+"];
38 -- 39;
39 [label="TEMP\nT_FP"];
38 -- 40;
40 [label="CONST\n12"];
36 -- 41;
41 [label="CONST\n1"];
35 -- 42;
42 [label="CONST\n4"];
25 -- 43;
43 [label="SEQ"];
43 -- 44;
44 [label="MOVE"];
44 -- 45;
45 [label="MEM"];
45 -- 46;
46 [label="+"];
46 -- 47;
47 [label="TEMP\nT_FP"];
46 -- 48;
48 [label="CONST\n20"];
44 -- 49;
49 [label="-"];
49 -- 50;
50 [label="MEM"];
50 -- 51;
51 [label="+"];
51 -- 52;
52 [label="TEMP\nT_FP"];
51 -- 53;
53 [label="CONST\n8"];
49 -- 54;
54 [label="CONST\n1"];
43 -- 55;
55 [label="SEQ"];
55 -- 56;
56 [label="MOVE"];
56 -- 57;
57 [label="MEM"];
57 -- 58;
58 [label="+"];
58 -- 59;
59 [label="TEMP\nT_FP"];
58 -- 60;
60 [label="CONST\n24"];
56 -- 61;
61 [label="MEM"];
61 -- 62;
62 [label="+"];
62 -- 63;
63 [label="TEMP\nT_FP"];
62 -- 64;
64 [label="CONST\n12"];
55 -- 65;
65 [label="SEQ"];
65 -- 66;
66 [label="MOVE"];
66 -- 67;
67 [label="MEM"];
67 -- 68;
68 [label="+"];
68 -- 69;
69 [label="TEMP\nT_FP"];
68 -- 70;
70 [label="CONST\n36"];
66 -- 71;
71 [label="CONST\n1"];
65 -- 72;
72 [label="SEQ"];
72 -- 73;
73 [label="SEQ"];
73 -- 74;
74 [label="LABEL\nL_WHILELOOP_3"];
73 -- 75;
75 [label="SEQ"];
75 -- 76;
76 [label="CJUMP\nLT"];
76 -- 77;
77 [label="MEM"];
77 -- 78;
78 [label="+"];
78 -- 79;
79 [label="TEMP\nT_FP"];
78 -- 80;
80 [label="CONST\n36"];
76 -- 81;
81 [label="CONST\n0"];
76 -- 82;
82 [label="iftrue\nL_WHILEBODY_3"];
76 -- 83;
83 [label="iffalse\nL_WHILEDONE_3"];
75 -- 84;
84 [label="SEQ"];
84 -- 85;
85 [label="LABEL\nL_WHILEBODY_3"];
84 -- 86;
86 [label="SEQ"];
86 -- 87;
87 [label="SEQ"];
87 -- 88;
88 [label="MOVE"];
88 -- 89;
89 [label="MEM"];
89 -- 90;
90 [label="+"];
90 -- 91;
91 [label="TEMP\nT_FP"];
90 -- 92;
92 [label="CONST\n40"];
88 -- 93;
93 [label="CONST\n1"];
87 -- 94;
94 [label="SEQ"];
94 -- 95;
95 [label="SEQ"];
95 -- 96;
96 [label="LABEL\nL_WHILELOOP_2"];
95 -- 97;
97 [label="SEQ"];
97 -- 98;
98 [label="CJUMP\nLT"];
98 -- 99;
99 [label="MEM"];
99 -- 100;
100 [label="+"];
100 -- 101;
101 [label="TEMP\nT_FP"];
100 -- 102;
102 [label="CONST\n40"];
98 -- 103;
103 [label="CONST\n0"];
98 -- 104;
104 [label="iftrue\nL_WHILEBODY_2"];
98 -- 105;
105 [label="iffalse\nL_WHILEDONE_2"];
97 -- 106;
106 [label="SEQ"];
106 -- 107;
107 [label="LABEL\nL_WHILEBODY_2"];
106 -- 108;
108 [label="SEQ"];
108 -- 109;
109 [label="SEQ"];
109 -- 110;
110 [label="MOVE"];
110 -- 111;
111 [label="MEM"];
111 -- 112;
112 [label="+"];
112 -- 113;
113 [label="TEMP\nT_FP"];
112 -- 114;
114 [label="CONST\n20"];
110 -- 115;
115 [label="+"];
115 -- 116;
116 [label="MEM"];
116 -- 117;
117 [label="+"];
117 -- 118;
118 [label="TEMP\nT_FP"];
117 -- 119;
119 [label="CONST\n20"];
115 -- 120;
120 [label="CONST\n1"];
109 -- 121;
121 [label="SEQ"];
121 -- 122;
122 [label="MOVE"];
122 -- 123;
123 [label="MEM"];
123 -- 124;
124 [label="+"];
124 -- 125;
125 [label="TEMP\nT_FP"];
124 -- 126;
126 [label="CONST\n44"];
122 -- 127;
127 [label="MEM"];
127 -- 128;
128 [label="+"];
128 -- 129;
129 [label="MEM"];
129 -- 130;
130 [label="TEMP\nT_THIS"];
128 -- 131;
131 [label="*"];
131 -- 132;
132 [label="+"];
132 -- 133;
133 [label="MEM"];
133 -- 134;
134 [label="+"];
134 -- 135;
135 [label="TEMP\nT_FP"];
134 -- 136;
136 [label="CONST\n20"];
132 -- 137;
137 [label="CONST\n1"];
131 -- 138;
138 [label="CONST\n4"];
121 -- 139;
139 [label="SEQ"];
139 -- 140;
140 [label="CJUMP\nLT"];
140 -- 141;
141 [label="MEM"];
141 -- 142;
142 [label="+"];
142 -- 143;
143 [label="TEMP\nT_FP"];
142 -- 144;
144 [label="CONST\n44"];
140 -- 145;
145 [label="MEM"];
145 -- 146;
146 [label="+"];
146 -- 147;
147 [label="TEMP\nT_FP"];
146 -- 148;
148 [label="CONST\n16"];
140 -- 149;
149 [label="iftrue\nL_IFFALSE_3"];
140 -- 150;
150 [label="iffalse\nL_IFTRUE_3"];
139 -- 151;
151 [label="SEQ"];
151 -- 152;
152 [label="LABEL\nL_IFTRUE_3"];
151 -- 153;
153 [label="SEQ"];
153 -- 154;
154 [label="MOVE"];
154 -- 155;
155 [label="MEM"];
155 -- 156;
156 [label="+"];
156 -- 157;
157 [label="TEMP\nT_FP"];
156 -- 158;
158 [label="CONST\n40"];
154 -- 159;
159 [label="CONST\n0"];
153 -- 160;
160 [label="SEQ"];
160 -- 161;
161 [label="JUMP\nL_IFEXIT_3"];
160 -- 162;
162 [label="SEQ"];
162 -- 163;
163 [label="LABEL\nL_IFFALSE_3"];
162 -- 164;
164 [label="SEQ"];
164 -- 165;
165 [label="MOVE"];
165 -- 166;
166 [label="MEM"];
166 -- 167;
167 [label="+"];
167 -- 168;
168 [label="TEMP\nT_FP"];
167 -- 169;
169 [label="CONST\n40"];
165 -- 170;
170 [label="CONST\n1"];
164 -- 171;
171 [label="LABEL\nL_IFEXIT_3"];
108 -- 172;
172 [label="SEQ"];
172 -- 173;
173 [label="JUMP\nL_WHILELOOP_2"];
172 -- 174;
174 [label="LABEL\nL_WHILEDONE_2"];
94 -- 175;
175 [label="SEQ"];
175 -- 176;
176 [label="MOVE"];
176 -- 177;
177 [label="MEM"];
177 -- 178;
178 [label="+"];
178 -- 179;
179 [label="TEMP\nT_FP"];
178 -- 180;
180 [label="CONST\n40"];
176 -- 181;
181 [label="CONST\n1"];
175 -- 182;
182 [label="SEQ"];
182 -- 183;
183 [label="SEQ"];
183 -- 184;
184 [label="LABEL\nL_WHILELOOP_1"];
183 -- 185;
185 [label="SEQ"];
185 -- 186;
186 [label="CJUMP\nLT"];
186 -- 187;
187 [label="MEM"];
187 -- 188;
188 [label="+"];
188 -- 189;
189 [label="TEMP\nT_FP"];
188 -- 190;
190 [label="CONST\n40"];
186 -- 191;
191 [label="CONST\n0"];
186 -- 192;
192 [label="iftrue\nL_WHILEBODY_1"];
186 -- 193;
193 [label="iffalse\nL_WHILEDONE_1"];
185 -- 194;
194 [label="SEQ"];
194 -- 195;
195 [label="LABEL\nL_WHILEBODY_1"];
194 -- 196;
196 [label="SEQ"];
196 -- 197;
197 [label="SEQ"];
197 -- 198;
198 [label="MOVE"];
198 -- 199;
199 [label="MEM"];
199 -- 200;
200 [label="+"];
200 -- 201;
201 [label="TEMP\nT_FP"];
200 -- 202;
202 [label="CONST\n24"];
198 -- 203;
203 [label="-"];
203 -- 204;
204 [label="MEM"];
204 -- 205;
205 [label="+"];
205 -- 206;
206 [label="TEMP\nT_FP"];
205 -- 207;
207 [label="CONST\n24"];
203 -- 208;
208 [label="CONST\n1"];
197 -- 209;
209 [label="SEQ"];
209 -- 210;
210 [label="MOVE"];
210 -- 211;
211 [label="MEM"];
211 -- 212;
212 [label="+"];
212 -- 213;
213 [label="TEMP\nT_FP"];
212 -- 214;
214 [label="CONST\n44"];
210 -- 215;
215 [label="MEM"];
215 -- 216;
216 [label="+"];
216 -- 217;
217 [label="MEM"];
217 -- 218;
218 [label="TEMP\nT_THIS"];
216 -- 219;
219 [label="*"];
219 -- 220;
220 [label="+"];
220 -- 221;
221 [label="MEM"];
221 -- 222;
222 [label="+"];
222 -- 223;
223 [label="TEMP\nT_FP"];
222 -- 224;
224 [label="CONST\n24"];
220 -- 225;
225 [label="CONST\n1"];
219 -- 226;
226 [label="CONST\n4"];
209 -- 227;
227 [label="SEQ"];
227 -- 228;
228 [label="CJUMP\nLT"];
228 -- 229;
229 [label="MEM"];
229 -- 230;
230 [label="+"];
230 -- 231;
231 [label="TEMP\nT_FP"];
230 -- 232;
232 [label="CONST\n16"];
228 -- 233;
233 [label="MEM"];
233 -- 234;
234 [label="+"];
234 -- 235;
235 [label="TEMP\nT_FP"];
234 -- 236;
236 [label="CONST\n44"];
228 -- 237;
237 [label="iftrue\nL_IFFALSE_2"];
228 -- 238;
238 [label="iffalse\nL_IFTRUE_2"];
227 -- 239;
239 [label="SEQ"];
239 -- 240;
240 [label="LABEL\nL_IFTRUE_2"];
239 -- 241;
241 [label="SEQ"];
241 -- 242;
242 [label="MOVE"];
242 -- 243;
243 [label="MEM"];
243 -- 244;
244 [label="+"];
244 -- 245;
245 [label="TEMP\nT_FP"];
244 -- 246;
246 [label="CONST\n40"];
242 -- 247;
247 [label="CONST\n0"];
241 -- 248;
248 [label="SEQ"];
248 -- 249;
249 [label="JUMP\nL_IFEXIT_2"];
248 -- 250;
250 [label="SEQ"];
250 -- 251;
251 [label="LABEL\nL_IFFALSE_2"];
250 -- 252;
252 [label="SEQ"];
252 -- 253;
253 [label="MOVE"];
253 -- 254;
254 [label="MEM"];
254 -- 255;
255 [label="+"];
255 -- 256;
256 [label="TEMP\nT_FP"];
255 -- 257;
257 [label="CONST\n40"];
253 -- 258;
258 [label="CONST\n1"];
252 -- 259;
259 [label="LABEL\nL_IFEXIT_2"];
196 -- 260;
260 [label="SEQ"];
260 -- 261;
261 [label="JUMP\nL_WHILELOOP_1"];
260 -- 262;
262 [label="LABEL\nL_WHILEDONE_1"];
182 -- 263;
263 [label="SEQ"];
263 -- 264;
264 [label="MOVE"];
264 -- 265;
265 [label="MEM"];
265 -- 266;
266 [label="+"];
266 -- 267;
267 [label="TEMP\nT_FP"];
266 -- 268;
268 [label="CONST\n32"];
264 -- 269;
269 [label="MEM"];
269 -- 270;
270 [label="+"];
270 -- 271;
271 [label="MEM"];
271 -- 272;
272 [label="TEMP\nT_THIS"];
270 -- 273;
273 [label="*"];
273 -- 274;
274 [label="+"];
274 -- 275;
275 [label="MEM"];
275 -- 276;
276 [label="+"];
276 -- 277;
277 [label="TEMP\nT_FP"];
276 -- 278;
278 [label="CONST\n20"];
274 -- 279;
279 [label="CONST\n1"];
273 -- 280;
280 [label="CONST\n4"];
263 -- 281;
281 [label="SEQ"];
281 -- 282;
282 [label="MOVE"];
282 -- 283;
283 [label="MEM"];
283 -- 284;
284 [label="+"];
284 -- 285;
285 [label="MEM"];
285 -- 286;
286 [label="TEMP\nT_THIS"];
284 -- 287;
287 [label="*"];
287 -- 288;
288 [label="+"];
288 -- 289;
289 [label="MEM"];
289 -- 290;
290 [label="+"];
290 -- 291;
291 [label="TEMP\nT_FP"];
290 -- 292;
292 [label="CONST\n20"];
288 -- 293;
293 [label="CONST\n1"];
287 -- 294;
294 [label="CONST\n4"];
282 -- 295;
295 [label="MEM"];
295 -- 296;
296 [label="+"];
296 -- 297;
297 [label="MEM"];
297 -- 298;
298 [label="TEMP\nT_THIS"];
296 -- 299;
299 [label="*"];
299 -- 300;
300 [label="+"];
300 -- 301;
301 [label="MEM"];
301 -- 302;
302 [label="+"];
302 -- 303;
303 [label="TEMP\nT_FP"];
302 -- 304;
304 [label="CONST\n24"];
300 -- 305;
305 [label="CONST\n1"];
299 -- 306;
306 [label="CONST\n4"];
281 -- 307;
307 [label="SEQ"];
307 -- 308;
308 [label="MOVE"];
308 -- 309;
309 [label="MEM"];
309 -- 310;
310 [label="+"];
310 -- 311;
311 [label="MEM"];
311 -- 312;
312 [label="TEMP\nT_THIS"];
310 -- 313;
313 [label="*"];
313 -- 314;
314 [label="+"];
314 -- 315;
315 [label="MEM"];
315 -- 316;
316 [label="+"];
316 -- 317;
317 [label="TEMP\nT_FP"];
316 -- 318;
318 [label="CONST\n24"];
314 -- 319;
319 [label="CONST\n1"];
313 -- 320;
320 [label="CONST\n4"];
308 -- 321;
321 [label="MEM"];
321 -- 322;
322 [label="+"];
322 -- 323;
323 [label="TEMP\nT_FP"];
322 -- 324;
324 [label="CONST\n32"];
307 -- 325;
325 [label="SEQ"];
325 -- 326;
326 [label="CJUMP\nLT"];
326 -- 327;
327 [label="MEM"];
327 -- 328;
328 [label="+"];
328 -- 329;
329 [label="TEMP\nT_FP"];
328 -- 330;
330 [label="CONST\n24"];
326 -- 331;
331 [label="+"];
331 -- 332;
332 [label="MEM"];
332 -- 333;
333 [label="+"];
333 -- 334;
334 [label="TEMP\nT_FP"];
333 -- 335;
335 [label="CONST\n20"];
331 -- 336;
336 [label="CONST\n1"];
326 -- 337;
337 [label="iftrue\nL_IFTRUE_1"];
326 -- 338;
338 [label="iffalse\nL_IFFALSE_1"];
325 -- 339;
339 [label="SEQ"];
339 -- 340;
340 [label="LABEL\nL_IFTRUE_1"];
339 -- 341;
341 [label="SEQ"];
341 -- 342;
342 [label="MOVE"];
342 -- 343;
343 [label="MEM"];
343 -- 344;
344 [label="+"];
344 -- 345;
345 [label="TEMP\nT_FP"];
344 -- 346;
346 [label="CONST\n36"];
342 -- 347;
347 [label="CONST\n0"];
341 -- 348;
348 [label="SEQ"];
348 -- 349;
349 [label="JUMP\nL_IFEXIT_1"];
348 -- 350;
350 [label="SEQ"];
350 -- 351;
351 [label="LABEL\nL_IFFALSE_1"];
350 -- 352;
352 [label="SEQ"];
352 -- 353;
353 [label="MOVE"];
353 -- 354;
354 [label="MEM"];
354 -- 355;
355 [label="+"];
355 -- 356;
356 [label="TEMP\nT_FP"];
355 -- 357;
357 [label="CONST\n36"];
353 -- 358;
358 [label="CONST\n1"];
352 -- 359;
359 [label="LABEL\nL_IFEXIT_1"];
86 -- 360;
360 [label="SEQ"];
360 -- 361;
361 [label="JUMP\nL_WHILELOOP_3"];
360 -- 362;
362 [label="LABEL\nL_WHILEDONE_3"];
72 -- 363;
363 [label="SEQ"];
363 -- 364;
364 [label="MOVE"];
364 -- 365;
365 [label="MEM"];
365 -- 366;
366 [label="+"];
366 -- 367;
367 [label="MEM"];
367 -- 368;
368 [label="TEMP\nT_THIS"];
366 -- 369;
369 [label="*"];
369 -- 370;
370 [label="+"];
370 -- 371;
371 [label="MEM"];
371 -- 372;
372 [label="+"];
372 -- 373;
373 [label="TEMP\nT_FP"];
372 -- 374;
374 [label="CONST\n24"];
370 -- 375;
375 [label="CONST\n1"];
369 -- 376;
376 [label="CONST\n4"];
364 -- 377;
377 [label="MEM"];
377 -- 378;
378 [label="+"];
378 -- 379;
379 [label="MEM"];
379 -- 380;
380 [label="TEMP\nT_THIS"];
378 -- 381;
381 [label="*"];
381 -- 382;
382 [label="+"];
382 -- 383;
383 [label="MEM"];
383 -- 384;
384 [label="+"];
384 -- 385;
385 [label="TEMP\nT_FP"];
384 -- 386;
386 [label="CONST\n20"];
382 -- 387;
387 [label="CONST\n1"];
381 -- 388;
388 [label="CONST\n4"];
363 -- 389;
389 [label="SEQ"];
389 -- 390;
390 [label="MOVE"];
390 -- 391;
391 [label="MEM"];
391 -- 392;
392 [label="+"];
392 -- 393;
393 [label="MEM"];
393 -- 394;
394 [label="TEMP\nT_THIS"];
392 -- 395;
395 [label="*"];
395 -- 396;
396 [label="+"];
396 -- 397;
397 [label="MEM"];
397 -- 398;
398 [label="+"];
398 -- 399;
399 [label="TEMP\nT_FP"];
398 -- 400;
400 [label="CONST\n20"];
396 -- 401;
401 [label="CONST\n1"];
395 -- 402;
402 [label="CONST\n4"];
390 -- 403;
403 [label="MEM"];
403 -- 404;
404 [label="+"];
404 -- 405;
405 [label="MEM"];
405 -- 406;
406 [label="TEMP\nT_THIS"];
404 -- 407;
407 [label="*"];
407 -- 408;
408 [label="+"];
408 -- 409;
409 [label="MEM"];
409 -- 410;
410 [label="+"];
410 -- 411;
411 [label="TEMP\nT_FP"];
410 -- 412;
412 [label="CONST\n12"];
408 -- 413;
413 [label="CONST\n1"];
407 -- 414;
414 [label="CONST\n4"];
389 -- 415;
415 [label="SEQ"];
415 -- 416;
416 [label="MOVE"];
416 -- 417;
417 [label="MEM"];
417 -- 418;
418 [label="+"];
418 -- 419;
419 [label="MEM"];
419 -- 420;
420 [label="TEMP\nT_THIS"];
418 -- 421;
421 [label="*"];
421 -- 422;
422 [label="+"];
422 -- 423;
423 [label="MEM"];
423 -- 424;
424 [label="+"];
424 -- 425;
425 [label="TEMP\nT_FP"];
424 -- 426;
426 [label="CONST\n12"];
422 -- 427;
427 [label="CONST\n1"];
421 -- 428;
428 [label="CONST\n4"];
416 -- 429;
429 [label="MEM"];
429 -- 430;
430 [label="+"];
430 -- 431;
431 [label="TEMP\nT_FP"];
430 -- 432;
432 [label="CONST\n32"];
415 -- 433;
433 [label="SEQ"];
433 -- 434;
434 [label="MOVE"];
434 -- 435;
435 [label="MEM"];
435 -- 436;
436 [label="+"];
436 -- 437;
437 [label="TEMP\nT_FP"];
436 -- 438;
438 [label="CONST\n28"];
434 -- 439;
439 [label="CALL"];
439 -- 440;
440 [label="NAME\nL_QS::Sort"];
439 -- 441;
441 [label="TEMP\nT_THIS"];
439 -- 442;
442 [label="MEM"];
442 -- 443;
443 [label="+"];
443 -- 444;
444 [label="TEMP\nT_FP"];
443 -- 445;
445 [label="CONST\n8"];
439 -- 446;
446 [label="-"];
446 -- 447;
447 [label="MEM"];
447 -- 448;
448 [label="+"];
448 -- 449;
449 [label="TEMP\nT_FP"];
448 -- 450;
450 [label="CONST\n20"];
446 -- 451;
451 [label="CONST\n1"];
433 -- 452;
452 [label="MOVE"];
452 -- 453;
453 [label="MEM"];
453 -- 454;
454 [label="+"];
454 -- 455;
455 [label="TEMP\nT_FP"];
454 -- 456;
456 [label="CONST\n28"];
452 -- 457;
457 [label="CALL"];
457 -- 458;
458 [label="NAME\nL_QS::Sort"];
457 -- 459;
459 [label="TEMP\nT_THIS"];
457 -- 460;
460 [label="+"];
460 -- 461;
461 [label="MEM"];
461 -- 462;
462 [label="+"];
462 -- 463;
463 [label="TEMP\nT_FP"];
462 -- 464;
464 [label="CONST\n20"];
460 -- 465;
465 [label="CONST\n1"];
457 -- 466;
466 [label="MEM"];
466 -- 467;
467 [label="+"];
467 -- 468;
468 [label="TEMP\nT_FP"];
467 -- 469;
469 [label="CONST\n12"];
24 -- 470;
470 [label="SEQ"];
470 -- 471;
471 [label="JUMP\nL_IFEXIT_4"];
470 -- 472;
472 [label="SEQ"];
472 -- 473;
473 [label="LABEL\nL_IFFALSE_4"];
472 -- 474;
474 [label="SEQ"];
474 -- 475;
475 [label="MOVE"];
475 -- 476;
476 [label="MEM"];
476 -- 477;
477 [label="+"];
477 -- 478;
478 [label="TEMP\nT_FP"];
477 -- 479;
479 [label="CONST\n28"];
475 -- 480;
480 [label="CONST\n0"];
474 -- 481;
481 [label="LABEL\nL_IFEXIT_4"];
2 -- 482;
482 [label="MOVE"];
482 -- 483;
483 [label="CONST\n0"];
482 -- 484;
484 [label="TEMP\nT_RET"];
}