strict graph G{
0 [label="SEQ"];
0 -- 1;
1 [label="LABEL\nL_List::Insert"];
0 -- 2;
2 [label="SEQ"];
2 -- 3;
3 [label="SEQ"];
3 -- 4;
4 [label="MOVE"];
4 -- 5;
5 [label="MEM"];
5 -- 6;
6 [label="+"];
6 -- 7;
7 [label="TEMP\nT_FP"];
6 -- 8;
8 [label="CONST\n24"];
4 -- 9;
9 [label="TEMP\nT_THIS"];
3 -- 10;
10 [label="SEQ"];
10 -- 11;
11 [label="MOVE"];
11 -- 12;
12 [label="MEM"];
12 -- 13;
13 [label="+"];
13 -- 14;
14 [label="TEMP\nT_FP"];
13 -- 15;
15 [label="CONST\n20"];
11 -- 16;
16 [label="CALL"];
16 -- 17;
17 [label="NAME\nL_malloc"];
16 -- 18;
18 [label="*"];
18 -- 19;
19 [label="CONST\n3"];
18 -- 20;
20 [label="CONST\n4"];
10 -- 21;
21 [label="MOVE"];
21 -- 22;
22 [label="MEM"];
22 -- 23;
23 [label="+"];
23 -- 24;
24 [label="TEMP\nT_FP"];
23 -- 25;
25 [label="CONST\n16"];
21 -- 26;
26 [label="CALL"];
26 -- 27;
27 [label="NAME\nL_List::InitNew"];
26 -- 28;
28 [label="MEM"];
28 -- 29;
29 [label="+"];
29 -- 30;
30 [label="TEMP\nT_FP"];
29 -- 31;
31 [label="CONST\n20"];
26 -- 32;
32 [label="MEM"];
32 -- 33;
33 [label="+"];
33 -- 34;
34 [label="TEMP\nT_FP"];
33 -- 35;
35 [label="CONST\n12"];
26 -- 36;
36 [label="MEM"];
36 -- 37;
37 [label="+"];
37 -- 38;
38 [label="TEMP\nT_FP"];
37 -- 39;
39 [label="CONST\n24"];
26 -- 40;
40 [label="CONST\n0"];
2 -- 41;
41 [label="MOVE"];
41 -- 42;
42 [label="MEM"];
42 -- 43;
43 [label="+"];
43 -- 44;
44 [label="TEMP\nT_FP"];
43 -- 45;
45 [label="CONST\n20"];
41 -- 46;
46 [label="TEMP\nT_RET"];
}