strict graph G{
0 [label="SEQ"];
0 -- 1;
1 [label="LABEL\nL_BT::Start"];
0 -- 2;
2 [label="SEQ"];
2 -- 3;
3 [label="SEQ"];
3 -- 4;
4 [label="MOVE"];
4 -- 5;
5 [label="MEM"];
5 -- 6;
6 [label="TEMP\nT_FP"];
4 -- 7;
7 [label="CALL"];
7 -- 8;
8 [label="NAME\nL_malloc"];
7 -- 9;
9 [label="*"];
9 -- 10;
10 [label="CONST\n6"];
9 -- 11;
11 [label="CONST\n4"];
3 -- 12;
12 [label="SEQ"];
12 -- 13;
13 [label="MOVE"];
13 -- 14;
14 [label="MEM"];
14 -- 15;
15 [label="+"];
15 -- 16;
16 [label="TEMP\nT_FP"];
15 -- 17;
17 [label="CONST\n4"];
13 -- 18;
18 [label="CALL"];
18 -- 19;
19 [label="NAME\nL_Tree::Init"];
18 -- 20;
20 [label="MEM"];
20 -- 21;
21 [label="TEMP\nT_FP"];
18 -- 22;
22 [label="CONST\n16"];
12 -- 23;
23 [label="SEQ"];
23 -- 24;
24 [label="MOVE"];
24 -- 25;
25 [label="MEM"];
25 -- 26;
26 [label="+"];
26 -- 27;
27 [label="TEMP\nT_FP"];
26 -- 28;
28 [label="CONST\n4"];
24 -- 29;
29 [label="CALL"];
29 -- 30;
30 [label="NAME\nL_Tree::Print"];
29 -- 31;
31 [label="MEM"];
31 -- 32;
32 [label="TEMP\nT_FP"];
23 -- 33;
33 [label="SEQ"];
33 -- 34;
34 [label="EXP"];
34 -- 35;
35 [label="CALL"];
35 -- 36;
36 [label="NAME\nL_print"];
35 -- 37;
37 [label="CONST\n100000000"];
33 -- 38;
38 [label="SEQ"];
38 -- 39;
39 [label="MOVE"];
39 -- 40;
40 [label="MEM"];
40 -- 41;
41 [label="+"];
41 -- 42;
42 [label="TEMP\nT_FP"];
41 -- 43;
43 [label="CONST\n4"];
39 -- 44;
44 [label="CALL"];
44 -- 45;
45 [label="NAME\nL_Tree::Insert"];
44 -- 46;
46 [label="MEM"];
46 -- 47;
47 [label="TEMP\nT_FP"];
44 -- 48;
48 [label="CONST\n8"];
38 -- 49;
49 [label="SEQ"];
49 -- 50;
50 [label="MOVE"];
50 -- 51;
51 [label="MEM"];
51 -- 52;
52 [label="+"];
52 -- 53;
53 [label="TEMP\nT_FP"];
52 -- 54;
54 [label="CONST\n4"];
50 -- 55;
55 [label="CALL"];
55 -- 56;
56 [label="NAME\nL_Tree::Print"];
55 -- 57;
57 [label="MEM"];
57 -- 58;
58 [label="TEMP\nT_FP"];
49 -- 59;
59 [label="SEQ"];
59 -- 60;
60 [label="MOVE"];
60 -- 61;
61 [label="MEM"];
61 -- 62;
62 [label="+"];
62 -- 63;
63 [label="TEMP\nT_FP"];
62 -- 64;
64 [label="CONST\n4"];
60 -- 65;
65 [label="CALL"];
65 -- 66;
66 [label="NAME\nL_Tree::Insert"];
65 -- 67;
67 [label="MEM"];
67 -- 68;
68 [label="TEMP\nT_FP"];
65 -- 69;
69 [label="CONST\n24"];
59 -- 70;
70 [label="SEQ"];
70 -- 71;
71 [label="MOVE"];
71 -- 72;
72 [label="MEM"];
72 -- 73;
73 [label="+"];
73 -- 74;
74 [label="TEMP\nT_FP"];
73 -- 75;
75 [label="CONST\n4"];
71 -- 76;
76 [label="CALL"];
76 -- 77;
77 [label="NAME\nL_Tree::Insert"];
76 -- 78;
78 [label="MEM"];
78 -- 79;
79 [label="TEMP\nT_FP"];
76 -- 80;
80 [label="CONST\n4"];
70 -- 81;
81 [label="SEQ"];
81 -- 82;
82 [label="MOVE"];
82 -- 83;
83 [label="MEM"];
83 -- 84;
84 [label="+"];
84 -- 85;
85 [label="TEMP\nT_FP"];
84 -- 86;
86 [label="CONST\n4"];
82 -- 87;
87 [label="CALL"];
87 -- 88;
88 [label="NAME\nL_Tree::Insert"];
87 -- 89;
89 [label="MEM"];
89 -- 90;
90 [label="TEMP\nT_FP"];
87 -- 91;
91 [label="CONST\n12"];
81 -- 92;
92 [label="SEQ"];
92 -- 93;
93 [label="MOVE"];
93 -- 94;
94 [label="MEM"];
94 -- 95;
95 [label="+"];
95 -- 96;
96 [label="TEMP\nT_FP"];
95 -- 97;
97 [label="CONST\n4"];
93 -- 98;
98 [label="CALL"];
98 -- 99;
99 [label="NAME\nL_Tree::Insert"];
98 -- 100;
100 [label="MEM"];
100 -- 101;
101 [label="TEMP\nT_FP"];
98 -- 102;
102 [label="CONST\n20"];
92 -- 103;
103 [label="SEQ"];
103 -- 104;
104 [label="MOVE"];
104 -- 105;
105 [label="MEM"];
105 -- 106;
106 [label="+"];
106 -- 107;
107 [label="TEMP\nT_FP"];
106 -- 108;
108 [label="CONST\n4"];
104 -- 109;
109 [label="CALL"];
109 -- 110;
110 [label="NAME\nL_Tree::Insert"];
109 -- 111;
111 [label="MEM"];
111 -- 112;
112 [label="TEMP\nT_FP"];
109 -- 113;
113 [label="CONST\n28"];
103 -- 114;
114 [label="SEQ"];
114 -- 115;
115 [label="MOVE"];
115 -- 116;
116 [label="MEM"];
116 -- 117;
117 [label="+"];
117 -- 118;
118 [label="TEMP\nT_FP"];
117 -- 119;
119 [label="CONST\n4"];
115 -- 120;
120 [label="CALL"];
120 -- 121;
121 [label="NAME\nL_Tree::Insert"];
120 -- 122;
122 [label="MEM"];
122 -- 123;
123 [label="TEMP\nT_FP"];
120 -- 124;
124 [label="CONST\n14"];
114 -- 125;
125 [label="SEQ"];
125 -- 126;
126 [label="MOVE"];
126 -- 127;
127 [label="MEM"];
127 -- 128;
128 [label="+"];
128 -- 129;
129 [label="TEMP\nT_FP"];
128 -- 130;
130 [label="CONST\n4"];
126 -- 131;
131 [label="CALL"];
131 -- 132;
132 [label="NAME\nL_Tree::Print"];
131 -- 133;
133 [label="MEM"];
133 -- 134;
134 [label="TEMP\nT_FP"];
125 -- 135;
135 [label="SEQ"];
135 -- 136;
136 [label="EXP"];
136 -- 137;
137 [label="CALL"];
137 -- 138;
138 [label="NAME\nL_print"];
137 -- 139;
139 [label="CALL"];
139 -- 140;
140 [label="NAME\nL_Tree::Search"];
139 -- 141;
141 [label="MEM"];
141 -- 142;
142 [label="TEMP\nT_FP"];
139 -- 143;
143 [label="CONST\n24"];
135 -- 144;
144 [label="SEQ"];
144 -- 145;
145 [label="EXP"];
145 -- 146;
146 [label="CALL"];
146 -- 147;
147 [label="NAME\nL_print"];
146 -- 148;
148 [label="CALL"];
148 -- 149;
149 [label="NAME\nL_Tree::Search"];
148 -- 150;
150 [label="MEM"];
150 -- 151;
151 [label="TEMP\nT_FP"];
148 -- 152;
152 [label="CONST\n12"];
144 -- 153;
153 [label="SEQ"];
153 -- 154;
154 [label="EXP"];
154 -- 155;
155 [label="CALL"];
155 -- 156;
156 [label="NAME\nL_print"];
155 -- 157;
157 [label="CALL"];
157 -- 158;
158 [label="NAME\nL_Tree::Search"];
157 -- 159;
159 [label="MEM"];
159 -- 160;
160 [label="TEMP\nT_FP"];
157 -- 161;
161 [label="CONST\n16"];
153 -- 162;
162 [label="SEQ"];
162 -- 163;
163 [label="EXP"];
163 -- 164;
164 [label="CALL"];
164 -- 165;
165 [label="NAME\nL_print"];
164 -- 166;
166 [label="CALL"];
166 -- 167;
167 [label="NAME\nL_Tree::Search"];
166 -- 168;
168 [label="MEM"];
168 -- 169;
169 [label="TEMP\nT_FP"];
166 -- 170;
170 [label="CONST\n50"];
162 -- 171;
171 [label="SEQ"];
171 -- 172;
172 [label="EXP"];
172 -- 173;
173 [label="CALL"];
173 -- 174;
174 [label="NAME\nL_print"];
173 -- 175;
175 [label="CALL"];
175 -- 176;
176 [label="NAME\nL_Tree::Search"];
175 -- 177;
177 [label="MEM"];
177 -- 178;
178 [label="TEMP\nT_FP"];
175 -- 179;
179 [label="CONST\n12"];
171 -- 180;
180 [label="SEQ"];
180 -- 181;
181 [label="MOVE"];
181 -- 182;
182 [label="MEM"];
182 -- 183;
183 [label="+"];
183 -- 184;
184 [label="TEMP\nT_FP"];
183 -- 185;
185 [label="CONST\n4"];
181 -- 186;
186 [label="CALL"];
186 -- 187;
187 [label="NAME\nL_Tree::Delete"];
186 -- 188;
188 [label="MEM"];
188 -- 189;
189 [label="TEMP\nT_FP"];
186 -- 190;
190 [label="CONST\n12"];
180 -- 191;
191 [label="SEQ"];
191 -- 192;
192 [label="MOVE"];
192 -- 193;
193 [label="MEM"];
193 -- 194;
194 [label="+"];
194 -- 195;
195 [label="TEMP\nT_FP"];
194 -- 196;
196 [label="CONST\n4"];
192 -- 197;
197 [label="CALL"];
197 -- 198;
198 [label="NAME\nL_Tree::Print"];
197 -- 199;
199 [label="MEM"];
199 -- 200;
200 [label="TEMP\nT_FP"];
191 -- 201;
201 [label="EXP"];
201 -- 202;
202 [label="CALL"];
202 -- 203;
203 [label="NAME\nL_print"];
202 -- 204;
204 [label="CALL"];
204 -- 205;
205 [label="NAME\nL_Tree::Search"];
204 -- 206;
206 [label="MEM"];
206 -- 207;
207 [label="TEMP\nT_FP"];
204 -- 208;
208 [label="CONST\n12"];
2 -- 209;
209 [label="MOVE"];
209 -- 210;
210 [label="CONST\n0"];
209 -- 211;
211 [label="TEMP\nT_RET"];
}